…
## Welcome! Want to learn more? See two factoextra-related books at https://goo.gl/ve3WBa

## Loading required package: lattice

## 
## Attaching package: 'caret'

## The following object is masked from 'package:purrr':
## 
##     lift

## # A tibble: 997 x 14
##    danceability energy   key loudness  mode speechiness acousticness
##           <dbl>  <dbl> <dbl>    <dbl> <dbl>       <dbl>        <dbl>
##  1        0.717  0.193     9   -16.1      0      0.0459       0.802 
##  2        0.698  0.239     4   -11.1      1      0.103        0.928 
##  3        0.665  0.403     9   -10.1      1      0.214        0.322 
##  4        0.665  0.183     9   -12.0      1      0.135        0.808 
##  5        0.856  0.288     0   -11.7      1      0.0764       0.0691
##  6        0.683  0.424     8    -9.16     0      0.0867       0.787 
##  7        0.769  0.32      5   -13.3      0      0.111        0.535 
##  8        0.725  0.28      1   -15.0      1      0.142        0.818 
##  9        0.831  0.341     6    -9.62     0      0.12         0.929 
## 10        0.684  0.463     0    -8.52     0      0.0843       0.417 
## # … with 987 more rows, and 7 more variables: instrumentalness <dbl>,
## #   liveness <dbl>, valence <dbl>, tempo <dbl>, playlist <chr>,
## #   duration_s <dbl>, id <chr>
…
