…
Again using Python, we declare our data of interest \(x_i := \frac{i}{100}\) for \(i = 1, ...,100\):

x_i = np.array([(i+1)/100 for i in range(100)])

We then call our Forsythe-Hayes function with our \(x_i\) as input, and view an R dataframe of the design matrix \(\mathbf{X}\) returned by the Python function:

## # A tibble: 100 x 5
##      `0`    `1`   `2`     `3`     `4`
##    <dbl>  <dbl> <dbl>   <dbl>   <dbl>
##  1   0.1 -0.171 0.217 -0.249   0.271 
##  2   0.1 -0.168 0.204 -0.219   0.217 
##  3   0.1 -0.165 0.191 -0.190   0.167 
##  4   0.1 -0.161 0.178 -0.163   0.122 
##  5   0.1 -0.158 0.166 -0.137   0.0813
##  6   0.1 -0.154 0.154 -0.113   0.0452
##  7   0.1 -0.151 0.142 -0.0904  0.0132
##  8   0.1 -0.147 0.131 -0.0690 -0.0150
##  9   0.1 -0.144 0.119 -0.0489 -0.0395
## 10   0.1 -0.140 0.108 -0.0302 -0.0605
## # … with 90 more rows
…
Comparison to usual regression

If instead we had used polynomials \(1, x, x^2, x^3, x^4\) for our design matrix, and fitted our model in the usual way, i.e. \[\hat{\boldsymbol{\beta}}=(\mathbf{X'X})^{-1}\mathbf{X'Y}\]
we would have design matrix (from Python):

design = pd.DataFrame(np.stack([np.power(x_i, i) for i in range(5)], axis=1))

viewed (in R):

design <- py$design
as.tibble(design)

## # A tibble: 100 x 5
##      `0`   `1`    `2`       `3`         `4`
##    <dbl> <dbl>  <dbl>     <dbl>       <dbl>
##  1     1  0.01 0.0001 0.000001  0.00000001 
##  2     1  0.02 0.0004 0.000008  0.00000016 
##  3     1  0.03 0.0009 0.0000270 0.000000810
##  4     1  0.04 0.0016 0.000064  0.00000256 
##  5     1  0.05 0.0025 0.000125  0.00000625 
##  6     1  0.06 0.0036 0.000216  0.0000130  
##  7     1  0.07 0.0049 0.000343  0.0000240  
##  8     1  0.08 0.0064 0.000512  0.0000410  
##  9     1  0.09 0.0081 0.000729  0.0000656  
## 10     1  0.1  0.01   0.001     0.0001     
## # … with 90 more rows
…
Comparing the models

We can estimate \(\hat{\mathbf{Y}}_{F}\) from our Forsythe-Hayes orthonormal polynomial design matrix \(\mathbf{X}_{F}\) and \(\hat{\boldsymbol{\gamma}}\):
\[\hat{\mathbf{Y}}_{F}=\mathbf{X}_{F} \hat{\boldsymbol{\gamma}}\]
and \(\hat{\mathbf{Y}}\) from our usual polynomial design matrix \(\mathbf{X}\) and \(\hat{\boldsymbol{\beta}}\):
\[\hat{\mathbf{Y}}=\mathbf{X} \hat{\boldsymbol{\beta}}\]
and preview the data and the models’ predictions:

x <- py$x_i
Forsythe_Hayes <- as.matrix(forsythedesign) %*% gamma
Poly_Regression <- Design %*% beta
comparison <- tibble(x, Y, Forsythe_Hayes, Poly_Regression)
comparison

## # A tibble: 100 x 4
##        x      Y Forsythe_Hayes[,1] Poly_Regression[,1]
##    <dbl>  <dbl>              <dbl>               <dbl>
##  1  0.01 0.0628           -0.115              -0.115  
##  2  0.02 0.125            -0.00141            -0.00141
##  3  0.03 0.187             0.105               0.105  
##  4  0.04 0.249             0.205               0.205  
##  5  0.05 0.309             0.298               0.298  
##  6  0.06 0.368             0.384               0.384  
##  7  0.07 0.426             0.465               0.465  
##  8  0.08 0.482             0.538               0.538  
##  9  0.09 0.536             0.606               0.606  
## 10  0.1  0.588             0.668               0.668  
## # … with 90 more rows
…
